ST 558 Project 1
…
my_wrapper <- function(url, pass_df = as.tibble(NULL)){
  pass_df<-read.csv(url)|>
    rename_and_select()|>
    create_longer_w_year()|>
    split_tibbles()
  return(pass_df)
}

test wrapper

my_wrapper("https://www4.stat.ncsu.edu/~online/datasets/EDU01b.csv")

[[1]]
# A tibble: 31,450 × 6
   area_name   state STCOU Info     year enrollment
   <chr>       <chr> <int> <chr>   <dbl>      <int>
 1 Autauga, AL " AL"  1001 EDU0101  1997       8099
 2 Autauga, AL " AL"  1001 EDU0101  1998       8211
 3 Autauga, AL " AL"  1001 EDU0101  1999       8489
 4 Autauga, AL " AL"  1001 EDU0102  2000       8912
 5 Autauga, AL " AL"  1001 EDU0102  2001       8626
 6 Autauga, AL " AL"  1001 EDU0102  2002       8762
 7 Autauga, AL " AL"  1001 EDU0152  2003       9105
 8 Autauga, AL " AL"  1001 EDU0152  2004       9200
 9 Autauga, AL " AL"  1001 EDU0152  2005       9559
10 Autauga, AL " AL"  1001 EDU0152  2006       9652
# ℹ 31,440 more rows

[[2]]
# A tibble: 530 × 6
   area_name     STCOU Info     year enrollment division
   <chr>         <int> <chr>   <dbl>      <int> <chr>   
 1 UNITED STATES     0 EDU0101  1997   44534459 ERROR   
 2 UNITED STATES     0 EDU0101  1998   46245814 ERROR   
 3 UNITED STATES     0 EDU0101  1999   46368903 ERROR   
 4 UNITED STATES     0 EDU0102  2000   46818690 ERROR   
 5 UNITED STATES     0 EDU0102  2001   47127066 ERROR   
 6 UNITED STATES     0 EDU0102  2002   47606570 ERROR   
 7 UNITED STATES     0 EDU0152  2003   48506317 ERROR   
 8 UNITED STATES     0 EDU0152  2004   48693287 ERROR   
 9 UNITED STATES     0 EDU0152  2005   48978555 ERROR   
10 UNITED STATES     0 EDU0152  2006   49140702 ERROR   
# ℹ 520 more rows
…
list1<-sapply(c("https://www4.stat.ncsu.edu/~online/datasets/EDU01a.csv","https://www4.stat.ncsu.edu/~online/datasets/EDU01b.csv"), my_wrapper)

#test
print(list1)

     https://www4.stat.ncsu.edu/~online/datasets/EDU01a.csv
[1,] county,6                                              
[2,] non_county,6                                          
     https://www4.stat.ncsu.edu/~online/datasets/EDU01b.csv
[1,] county,6                                              
[2,] non_county,6                                          

print(list1[[1]])

# A tibble: 31,450 × 6
   area_name   state STCOU Info     year enrollment
   <chr>       <chr> <int> <chr>   <dbl>      <int>
 1 Autauga, AL " AL"  1001 EDU0101  1987       6829
 2 Autauga, AL " AL"  1001 EDU0101  1988       6900
 3 Autauga, AL " AL"  1001 EDU0101  1989       6920
 4 Autauga, AL " AL"  1001 EDU0101  1990       6847
 5 Autauga, AL " AL"  1001 EDU0101  1991       7008
 6 Autauga, AL " AL"  1001 EDU0101  1992       7137
 7 Autauga, AL " AL"  1001 EDU0101  1993       7152
 8 Autauga, AL " AL"  1001 EDU0101  1994       7381
 9 Autauga, AL " AL"  1001 EDU0101  1995       7568
10 Autauga, AL " AL"  1001 EDU0101  1996       7834
# ℹ 31,440 more rows

print(list1[[2]])

# A tibble: 530 × 6
   area_name     STCOU Info     year enrollment division
   <chr>         <int> <chr>   <dbl>      <int> <chr>   
 1 UNITED STATES     0 EDU0101  1987   40024299 ERROR   
 2 UNITED STATES     0 EDU0101  1988   39967624 ERROR   
 3 UNITED STATES     0 EDU0101  1989   40317775 ERROR   
 4 UNITED STATES     0 EDU0101  1990   40737600 ERROR   
 5 UNITED STATES     0 EDU0101  1991   41385442 ERROR   
 6 UNITED STATES     0 EDU0101  1992   42088151 ERROR   
 7 UNITED STATES     0 EDU0101  1993   42724710 ERROR   
 8 UNITED STATES     0 EDU0101  1994   43369917 ERROR   
 9 UNITED STATES     0 EDU0101  1995   43993459 ERROR   
10 UNITED STATES     0 EDU0101  1996   44715737 ERROR   
# ℹ 520 more rows

print(list1[[3]])

# A tibble: 31,450 × 6
   area_name   state STCOU Info     year enrollment
   <chr>       <chr> <int> <chr>   <dbl>      <int>
 1 Autauga, AL " AL"  1001 EDU0101  1997       8099
 2 Autauga, AL " AL"  1001 EDU0101  1998       8211
 3 Autauga, AL " AL"  1001 EDU0101  1999       8489
 4 Autauga, AL " AL"  1001 EDU0102  2000       8912
 5 Autauga, AL " AL"  1001 EDU0102  2001       8626
 6 Autauga, AL " AL"  1001 EDU0102  2002       8762
 7 Autauga, AL " AL"  1001 EDU0152  2003       9105
 8 Autauga, AL " AL"  1001 EDU0152  2004       9200
 9 Autauga, AL " AL"  1001 EDU0152  2005       9559
10 Autauga, AL " AL"  1001 EDU0152  2006       9652
# ℹ 31,440 more rows

print(list1[[4]])

# A tibble: 530 × 6
   area_name     STCOU Info     year enrollment division
   <chr>         <int> <chr>   <dbl>      <int> <chr>   
 1 UNITED STATES     0 EDU0101  1997   44534459 ERROR   
 2 UNITED STATES     0 EDU0101  1998   46245814 ERROR   
 3 UNITED STATES     0 EDU0101  1999   46368903 ERROR   
 4 UNITED STATES     0 EDU0102  2000   46818690 ERROR   
 5 UNITED STATES     0 EDU0102  2001   47127066 ERROR   
 6 UNITED STATES     0 EDU0102  2002   47606570 ERROR   
 7 UNITED STATES     0 EDU0152  2003   48506317 ERROR   
 8 UNITED STATES     0 EDU0152  2004   48693287 ERROR   
 9 UNITED STATES     0 EDU0152  2005   48978555 ERROR   
10 UNITED STATES     0 EDU0152  2006   49140702 ERROR   
# ℹ 520 more rows
…
Test combination

Finally, we test the previous function to ensure that everything is working correctly.

combined_data <- combine_data_sets(list1)
names(combined_data)<- c("county","non_county")
combined_data$county

# A tibble: 62,900 × 6
   area_name   state STCOU Info     year enrollment
   <chr>       <chr> <int> <chr>   <dbl>      <int>
 1 Autauga, AL " AL"  1001 EDU0101  1987       6829
 2 Autauga, AL " AL"  1001 EDU0101  1988       6900
 3 Autauga, AL " AL"  1001 EDU0101  1989       6920
 4 Autauga, AL " AL"  1001 EDU0101  1990       6847
 5 Autauga, AL " AL"  1001 EDU0101  1991       7008
 6 Autauga, AL " AL"  1001 EDU0101  1992       7137
 7 Autauga, AL " AL"  1001 EDU0101  1993       7152
 8 Autauga, AL " AL"  1001 EDU0101  1994       7381
 9 Autauga, AL " AL"  1001 EDU0101  1995       7568
10 Autauga, AL " AL"  1001 EDU0101  1996       7834
# ℹ 62,890 more rows

combined_data$non_county

# A tibble: 1,060 × 6
   area_name     STCOU Info     year enrollment division
   <chr>         <int> <chr>   <dbl>      <int> <chr>   
 1 UNITED STATES     0 EDU0101  1987   40024299 ERROR   
 2 UNITED STATES     0 EDU0101  1988   39967624 ERROR   
 3 UNITED STATES     0 EDU0101  1989   40317775 ERROR   
 4 UNITED STATES     0 EDU0101  1990   40737600 ERROR   
 5 UNITED STATES     0 EDU0101  1991   41385442 ERROR   
 6 UNITED STATES     0 EDU0101  1992   42088151 ERROR   
 7 UNITED STATES     0 EDU0101  1993   42724710 ERROR   
 8 UNITED STATES     0 EDU0101  1994   43369917 ERROR   
 9 UNITED STATES     0 EDU0101  1995   43993459 ERROR   
10 UNITED STATES     0 EDU0101  1996   44715737 ERROR   
# ℹ 1,050 more rows
…
